module gitlab.com/gitlab-org/gitaly/tools/gofumpt

go 1.23

toolchain go1.23.6

require mvdan.cc/gofumpt v0.7.0

require (
	github.com/google/go-cmp v0.6.0 // indirect
	golang.org/x/mod v0.14.0 // indirect
	golang.org/x/sync v0.6.0 // indirect
	golang.org/x/tools v0.17.0 // indirect
)
